alembic==0.7.6
bleach==1.4.1
blinker==1.3
Flask==0.10.1
Flask-Bootstrap==3.3.4.1
Flask-Login==0.2.11
Flask-Mail==0.9.1
Flask-Migrate==1.4.0
Flask-Moment==0.4.0
Flask-PageDown==0.2.1
Flask-Script==2.0.5
Flask-SQLAlchemy==2.0
Flask-WTF==0.11
html5lib==0.99999
itsdangerous==0.24
Jinja2==2.7.3
Mako==1.0.1
Markdown==2.6.2
MarkupSafe==0.23
psycopg2==2.6
six==1.9.0
SQLAlchemy==1.0.4
Werkzeug==0.10.4
WTForms==2.0.2
